<svg xmlns="http://www.w3.org/2000/svg" viewBox="0 0 34 20.323">
    <defs>
        <style>
            .cls-1{fill:#fff}
        </style>
    </defs>
    <g id="DASH-alt" transform="translate(-.65 -45.786)">
        <path id="Union_2" d="M.815 20.323l1.567-5.079h20.927l3.127-10.165H5.675L7.242 0h23.167a3.527 3.527 0 0 1 3.147 1.818c.682 1.327.493 2.01 0 3.792s-2.1 7.128-2.755 9.024a8.127 8.127 0 0 1-3.426 4.4 6.607 6.607 0 0 1-4.31 1.291zM0 12.473l1.435-4.664h12.4L12.4 12.473z" class="cls-1" data-name="Union 2" transform="translate(.651 45.786)"/>
    </g>
</svg>
