<svg xmlns="http://www.w3.org/2000/svg" viewBox="0 0 12.023 12.023">
    <defs>
        <style>
            .cls-1{fill:#fff}
        </style>
    </defs>
    <path id="open-in-new_1_" d="M10.348 3v1.336h2.4L6.18 10.9l.942.942 6.566-6.566v2.4h1.336V3m-1.336 10.688H4.336V4.336h4.676V3H4.336A1.336 1.336 0 0 0 3 4.336v9.352a1.336 1.336 0 0 0 1.336 1.336h9.352a1.336 1.336 0 0 0 1.336-1.336V9.012h-1.336z" class="cls-1" data-name="open-in-new (1)" transform="translate(-3 -3)"/>
</svg>
