<svg xmlns="http://www.w3.org/2000/svg" viewBox="0 0 131.938 39.617">
    <defs>
        <style>
            .cls-1{fill:#8d85ac}
        </style>
    </defs>
    <g id="CV_crypto_voucher_logo_flat_white_" data-name="CV crypto voucher logo flat white" transform="translate(.001)">
        <g id="Warstwa_2" data-name="Warstwa 2" transform="translate(-.001)">
            <path id="Path_368" d="M42.433 13.46a2.618 2.618 0 0 1-.891.764 3.183 3.183 0 0 1-2.49 0 2.617 2.617 0 0 1-.934-.665 2.66 2.66 0 0 1-.608-1 3.735 3.735 0 0 1 0-2.561 3.127 3.127 0 0 1 .608-1 2.83 2.83 0 0 1 .948-.665 3.183 3.183 0 0 1 2.391 0 2.023 2.023 0 0 1 .92.722l1.712-1.7A4.245 4.245 0 0 0 42.362 6.2a6.466 6.466 0 0 0-2.162-.38 6.31 6.31 0 0 0-2.2.424 5.362 5.362 0 0 0-1.8 1.089 4.952 4.952 0 0 0-1.181 1.727 5.575 5.575 0 0 0-.439 2.264 5.773 5.773 0 0 0 .42 2.235 5.178 5.178 0 0 0 1.174 1.74 5.094 5.094 0 0 0 1.769 1.118 6.013 6.013 0 0 0 2.221.4 5.66 5.66 0 0 0 2.335-.453 5.122 5.122 0 0 0 1.717-1.264z" class="cls-1" data-name="Path 368" transform="translate(14.347 2.415)"/>
            <path id="Path_369" d="M44.549 12.318h.863l2.25 4.131H50.6l-2.717-4.457a3.212 3.212 0 0 0 1.585-1.033 2.731 2.731 0 0 0 .566-1.769 3.014 3.014 0 0 0-.34-1.5 2.957 2.957 0 0 0-.891-.976 3.834 3.834 0 0 0-1.231-.509 6.211 6.211 0 0 0-1.415-.156H42.2v10.4h2.448zm0-4.245h1.924a1.8 1.8 0 0 1 .552.17 1.061 1.061 0 0 1 .4.354 1.089 1.089 0 0 1 .156.637 1.146 1.146 0 0 1-.17.651 1.288 1.288 0 0 1-.439.382 2.264 2.264 0 0 1-.594.184h-1.829z" class="cls-1" data-name="Path 369" transform="translate(17.509 2.51)"/>
            <path id="Path_370" d="M51.845 16.435h2.518v-4.4l3.99-5.985h-2.942L53.2 9.9l-2.218-3.85H47.94l3.905 5.985z" class="cls-1" data-name="Path 370" transform="translate(19.89 2.51)"/>
            <path id="Path_371" d="M61.17 12.346a3.947 3.947 0 0 0 1.316-.566 2.49 2.49 0 0 0 .906-1 3.127 3.127 0 0 0 .34-1.528 3.183 3.183 0 0 0-.311-1.5 2.66 2.66 0 0 0-.863-.99 3.721 3.721 0 0 0-1.3-.538 7.074 7.074 0 0 0-1.585-.17H55.85v10.4h2.5v-3.938h1.259a7.074 7.074 0 0 0 1.561-.17zm-2.83-1.825V8.073h1.1a4.712 4.712 0 0 1 .651 0 1.655 1.655 0 0 1 .566.17 1 1 0 0 1 .4.368 1.273 1.273 0 0 1 0 1.217 1.061 1.061 0 0 1-.4.4 2.334 2.334 0 0 1-.58.2 3.467 3.467 0 0 1-.679 0z" class="cls-1" data-name="Path 371" transform="translate(23.172 2.51)"/>
            <path id="Path_372" d="M64.663 16.435h2.518V8.186h2.929V6.05h-8.39v2.136h2.943z" class="cls-1" data-name="Path 372" transform="translate(25.607 2.51)"/>
            <path id="Path_373" d="M69.409 15.275a5.207 5.207 0 0 0 1.8 1.118 6.622 6.622 0 0 0 4.513 0 5.094 5.094 0 0 0 2.985-2.83 5.787 5.787 0 0 0 .424-2.25 5.66 5.66 0 0 0-.424-2.25 4.768 4.768 0 0 0-1.188-1.712 5.023 5.023 0 0 0-1.8-1.089 6.862 6.862 0 0 0-4.513 0 5.15 5.15 0 0 0-1.8 1.089 4.924 4.924 0 0 0-1.174 1.712 5.66 5.66 0 0 0-.424 2.25 5.787 5.787 0 0 0 .424 2.25 5.235 5.235 0 0 0 1.177 1.712zm1.3-5.263a2.66 2.66 0 0 1 .608-1 2.745 2.745 0 0 1 1-.665 3.162 3.162 0 0 1 2.419 0 2.617 2.617 0 0 1 .934.665 2.66 2.66 0 0 1 .608 1 3.325 3.325 0 0 1 .226 1.259 3.551 3.551 0 0 1-.226 1.3 2.933 2.933 0 0 1-4.9 1.019 3.311 3.311 0 0 1-.608-1.019 3.863 3.863 0 0 1-.212-1.3 3.622 3.622 0 0 1 .153-1.26z" class="cls-1" data-name="Path 373" transform="translate(28.134 2.44)"/>
            <path id="Path_374" d="M46.214 22.256h-.057L43.724 14.8H40.88l3.976 10.513h2.533L51.435 14.8h-2.8z" class="cls-1" data-name="Path 374" transform="translate(16.961 6.14)"/>
            <path id="Path_375" d="M58.3 16.082a5.433 5.433 0 0 0-1.811-1.089 6.721 6.721 0 0 0-2.289-.383 6.579 6.579 0 0 0-2.278.382 5.433 5.433 0 0 0-1.811 1.089 5.009 5.009 0 0 0-1.188 1.74 5.659 5.659 0 0 0-.443 2.279 5.73 5.73 0 0 0 .439 2.278 5.263 5.263 0 0 0 1.188 1.769 5.532 5.532 0 0 0 1.811 1.132 6.268 6.268 0 0 0 2.278.4 6.4 6.4 0 0 0 2.292-.4 5.532 5.532 0 0 0 1.812-1.133 5.263 5.263 0 0 0 1.189-1.769 5.73 5.73 0 0 0 .439-2.278 5.66 5.66 0 0 0-.439-2.278 5.009 5.009 0 0 0-1.189-1.739zm-1.316 5.334a2.83 2.83 0 0 1-.623 1.019 2.66 2.66 0 0 1-.948.679 3.2 3.2 0 0 1-2.434 0 2.66 2.66 0 0 1-.948-.679 3.056 3.056 0 0 1-.608-1.019A3.679 3.679 0 0 1 51.2 20.1a3.834 3.834 0 0 1 .212-1.288 2.929 2.929 0 0 1 .623-1 3.056 3.056 0 0 1 .948-.679 3.113 3.113 0 0 1 1.217-.241 3.24 3.24 0 0 1 1.231.241 3.056 3.056 0 0 1 .948.679 3.127 3.127 0 0 1 .608 1 3.523 3.523 0 0 1 .223 1.288 3.679 3.679 0 0 1-.226 1.316z" class="cls-1" data-name="Path 375" transform="translate(20.114 6.061)"/>
            <path id="Path_376" d="M64.146 21.135a3.042 3.042 0 0 1-.1.821 1.981 1.981 0 0 1-.34.693 1.641 1.641 0 0 1-.623.481 2.151 2.151 0 0 1-.906.184 2.264 2.264 0 0 1-.92-.184 1.7 1.7 0 0 1-.608-.481 2.632 2.632 0 0 1-.34-.693 3.027 3.027 0 0 1-.113-.821V14.81H57.68v6.537a4.471 4.471 0 0 0 .311 1.726 3.99 3.99 0 0 0 .891 1.415 4.245 4.245 0 0 0 1.415.863 5.179 5.179 0 0 0 1.868.311 5.277 5.277 0 0 0 1.868-.311 4.386 4.386 0 0 0 1.415-.863 3.82 3.82 0 0 0 .906-1.415 4.471 4.471 0 0 0 .325-1.726V14.81h-2.547z" class="cls-1" data-name="Path 376" transform="translate(23.931 6.144)"/>
            <path id="Path_377" d="M72.194 23.043a2.745 2.745 0 0 1-1.316.3 2.83 2.83 0 0 1-2.759-1.91 3.552 3.552 0 0 1-.226-1.3 3.466 3.466 0 0 1 .226-1.288 2.83 2.83 0 0 1 .623-1.019 3.056 3.056 0 0 1 .948-.679 3.24 3.24 0 0 1 1.231-.241 3.127 3.127 0 0 1 1.188.241 2.136 2.136 0 0 1 .934.722l1.783-1.712a4.245 4.245 0 0 0-1.754-1.16 6.607 6.607 0 0 0-4.429 0 5.377 5.377 0 0 0-1.811 1.1 5.051 5.051 0 0 0-1.2 1.74 5.659 5.659 0 0 0-.439 2.292 5.787 5.787 0 0 0 .424 2.25 5.66 5.66 0 0 0 1.183 1.767 5.462 5.462 0 0 0 1.8 1.132 6.056 6.056 0 0 0 2.25.4 5.56 5.56 0 0 0 2.349-.467 4.91 4.91 0 0 0 1.627-1.273l-1.726-1.7a2.533 2.533 0 0 1-.906.806z" class="cls-1" data-name="Path 377" transform="translate(27.047 6.061)"/>
            <path id="Path_378" d="M79.422 18.79h-4.089V14.8H72.8v10.513h2.533v-4.387h4.089v4.386h2.547V14.8h-2.547z" class="cls-1" data-name="Path 378" transform="translate(30.204 6.14)"/>
            <path id="Path_379" d="M83.258 20.969h4.358v-2.038h-4.358v-1.98h4.612V14.8h-7.06v10.513h7.329v-2.165h-4.881z" class="cls-1" data-name="Path 379" transform="translate(33.527 6.14)"/>
            <path id="Path_380" d="M93.023 20.8a3.1 3.1 0 0 0 1.6-1.033 2.745 2.745 0 0 0 .58-1.8 3.07 3.07 0 0 0-.34-1.486 2.66 2.66 0 0 0-.92-.976 3.481 3.481 0 0 0-1.288-.524 6.339 6.339 0 0 0-1.415-.156h-4.06v10.5h2.476v-4.2h.863L92.8 25.3h2.971zm-.439-2.136a1.3 1.3 0 0 1-.439.4 2.547 2.547 0 0 1-.608.184 4.81 4.81 0 0 1-.637 0h-1.2v-2.409h1.995a2.547 2.547 0 0 1 .552.17 1.132 1.132 0 0 1 .41.368 1.09 1.09 0 0 1 .156.594 1.146 1.146 0 0 1-.226.693z" class="cls-1" data-name="Path 380" transform="translate(36.17 6.153)"/>
            <path id="Path_381" d="M25.468 24.477l-1.967-6a27.081 27.081 0 0 1-2.377 1.712 23.813 23.813 0 0 1-3.283 1.74h-.1a7.3 7.3 0 0 1-2.83.538 7.711 7.711 0 0 1-3.1-.608 7.074 7.074 0 0 1-2.434-1.712A7.952 7.952 0 0 1 7.8 17.53a9.508 9.508 0 0 1-.722-3.311 9.225 9.225 0 0 1 .566-3.3A7.838 7.838 0 0 1 9.3 8.305a7.074 7.074 0 0 1 2.462-1.74 7.711 7.711 0 0 1 3.155-.637 7.909 7.909 0 0 1 3.056.608 5.5 5.5 0 0 1 2.419 1.953l4.429-4.443a10.7 10.7 0 0 0-4.485-3.028A16.724 16.724 0 0 0 8.914.99a13.8 13.8 0 0 0-4.669 2.83 12.96 12.96 0 0 0-3.113 4.514A14.9 14.9 0 0 0 0 14.22a14.9 14.9 0 0 0 1.1 5.815 13.781 13.781 0 0 0 3.141 4.542 13.484 13.484 0 0 0 4.528 2.915 15.832 15.832 0 0 0 5.8 1.033 14.9 14.9 0 0 0 5.362-.92 40.705 40.705 0 0 0 4.5-2.462z" class="cls-1" data-name="Path 381" transform="translate(.001)"/>
            <path id="Path_382" d="M21.972 28.1h-.141l-1.882-5.759c-.212.141-.41.3-.637.424a39.971 39.971 0 0 1-4.782 2.6l3.976 10.455h6.452l10.3-26.67h-7.074z" class="cls-1" data-name="Path 382" transform="translate(6.029 3.796)"/>
            <path id="Path_383" d="M12.991 16.55a21.874 21.874 0 0 0 2.985-1.585 21.931 21.931 0 0 0 2.7-1.995l-1.242-3.82H10.19z" class="cls-1" data-name="Path 383" transform="translate(4.229 3.796)"/>
        </g>
    </g>
</svg>
