<svg xmlns="http://www.w3.org/2000/svg" viewBox="0 0 22.272 28">
    <defs>
        <style>
            .cls-1{fill:#fff}
        </style>
    </defs>
    <path id="LTC-alt" d="M32.441 22.74l1.578-7.512 7.974-5.468.935-4.46-7.976 5.489L37.217 0h-6.126L27.8 15.706l-3.355 2.309-.779 4.309 3.207-2.2L25.225 28h19.624l1.09-5.26z" class="cls-1" transform="translate(-23.667)"/>
</svg>
