<svg xmlns="http://www.w3.org/2000/svg" viewBox="0 0 24 24">
    <defs>
        <style>
            .cls-1{fill:#fff}
        </style>
    </defs>
    <g id="account-circle_1_" data-name="account-circle (1)" transform="translate(-1266 -34)">
        <path id="account-circle_1_2" d="M14 22.64a8.678 8.678 0 0 1-7.2-3.84c.036-2.4 4.8-3.72 7.2-3.72s7.164 1.32 7.2 3.72a8.678 8.678 0 0 1-7.2 3.84M14 5.6a3.6 3.6 0 1 1-3.6 3.6A3.6 3.6 0 0 1 14 5.6M14 2a12 12 0 1 0 12 12A12 12 0 0 0 14 2z" class="cls-1" data-name="account-circle (1)" transform="translate(1264 32)"/>
    </g>
</svg>
